<svg width="10" height="22" viewBox="0 0 10 22" fill="none" xmlns="http://www.w3.org/2000/svg">
<g clip-path="url(#clip0)">
<g clip-path="url(#clip1)">
<path d="M1.28 11.424V9.712H0V8.16H1.28V6.912H0V4.928H1.28V0H4.928C6.4 0 7.472 0.298667 8.144 0.896C8.82667 1.49333 9.168 2.31467 9.168 3.36C9.168 3.97867 9.02933 4.56 8.752 5.104C8.47467 5.648 8.01067 6.08533 7.36 6.416C6.72 6.74667 5.84533 6.912 4.736 6.912H3.696V8.16H6.16V9.712H3.696V11.424H1.28ZM3.696 4.928H4.496C5.17867 4.928 5.71733 4.81067 6.112 4.576C6.51733 4.34133 6.72 3.96267 6.72 3.44C6.72 2.46933 6.08 1.984 4.8 1.984H3.696V4.928Z" fill="#212121"/>
</g>
<g clip-path="url(#clip2)">
<path d="M1.28 22.424V20.712H0V19.16H1.28V17.912H0V15.928H1.28V11H4.928C6.4 11 7.472 11.2987 8.144 11.896C8.82667 12.4933 9.168 13.3147 9.168 14.36C9.168 14.9787 9.02933 15.56 8.752 16.104C8.47467 16.648 8.01067 17.0853 7.36 17.416C6.72 17.7467 5.84533 17.912 4.736 17.912H3.696V19.16H6.16V20.712H3.696V22.424H1.28ZM3.696 15.928H4.496C5.17867 15.928 5.71733 15.8107 6.112 15.576C6.51733 15.3413 6.72 14.9627 6.72 14.44C6.72 13.4693 6.08 12.984 4.8 12.984H3.696V15.928Z" fill="#FF0000"/>
</g>
</g>
<defs>
<clipPath id="clip0">
<rect width="9.2" height="22" fill="white"/>
</clipPath>
<clipPath id="clip1">
<rect width="9.2" height="11" fill="white"/>
</clipPath>
<clipPath id="clip2">
<rect width="9.2" height="11" fill="white" transform="translate(0 11)"/>
</clipPath>
</defs>
</svg>
